^zad2.asm
D:\Projekty\Assemblerowe\ASM-LAB4-ZAD2\ASM-LAB4-ZAD2\Debug\zad2.obj
^zad2.asm
D:\Projekty\Assemblerowe\ASM-LAB4-ZAD2\ASM-LAB4-ZAD2\Debug\zad2.obj
^zad2.asm
D:\Projekty\Assemblerowe\ASM-LAB4-ZAD2\ASM-LAB4-ZAD2\Debug\zad2.obj
^zad2.asm
D:\Projekty\Assemblerowe\ASM-LAB4-ZAD2\ASM-LAB4-ZAD2\Debug\zad2.obj
^zad2.asm
D:\Projekty\Assemblerowe\ASM-LAB4-ZAD2\ASM-LAB4-ZAD2\Debug\zad2.obj
^zad2.asm
D:\Projekty\Assemblerowe\ASM-LAB4-ZAD2\ASM-LAB4-ZAD2\Debug\zad2.obj
^zad2.asm
D:\Projekty\Assemblerowe\ASM-LAB4-ZAD2\ASM-LAB4-ZAD2\Debug\zad2.obj
^zad2.asm
D:\Projekty\Assemblerowe\ASM-LAB4-ZAD2\ASM-LAB4-ZAD2\Debug\zad2.obj
^zad2.asm
D:\Projekty\Assemblerowe\ASM-LAB4-ZAD2\ASM-LAB4-ZAD2\Debug\zad2.obj
^zad2.asm
D:\Projekty\Assemblerowe\ASM-LAB4-ZAD2\ASM-LAB4-ZAD2\Debug\zad2.obj
^zad2.asm
D:\Projekty\Assemblerowe\ASM-LAB4-ZAD2\ASM-LAB4-ZAD2\Debug\zad2.obj
^zad2.asm
D:\Projekty\Assemblerowe\ASM-LAB4-ZAD2\ASM-LAB4-ZAD2\Debug\zad2.obj
^zad2.asm
D:\Projekty\Assemblerowe\ASM-LAB4-ZAD2\ASM-LAB4-ZAD2\Debug\zad2.obj
^zad2.asm
D:\Projekty\Assemblerowe\ASM-LAB4-ZAD2\ASM-LAB4-ZAD2\Debug\zad2.obj
^zad2.asm
D:\Projekty\Assemblerowe\ASM-LAB4-ZAD2\ASM-LAB4-ZAD2\Debug\zad2.obj
^zad2.asm
D:\Projekty\Assemblerowe\ASM-LAB4-ZAD2\ASM-LAB4-ZAD2\Debug\zad2.obj
^zad2.asm
D:\Projekty\Assemblerowe\ASM-LAB4-ZAD2\ASM-LAB4-ZAD2\Debug\zad2.obj
^zad2.asm
D:\Projekty\Assemblerowe\ASM-LAB4-ZAD2\ASM-LAB4-ZAD2\Debug\zad2.obj
^zad2.asm
D:\Projekty\Assemblerowe\ASM-LAB4-ZAD2\ASM-LAB4-ZAD2\Debug\zad2.obj
^zad2.asm
D:\Projekty\Assemblerowe\ASM-LAB4-ZAD2\ASM-LAB4-ZAD2\Debug\zad2.obj
^zad2.asm
D:\Projekty\Assemblerowe\ASM-LAB4-ZAD2\ASM-LAB4-ZAD2\Debug\zad2.obj
^zad2.asm
D:\Projekty\Assemblerowe\ASM-LAB4-ZAD2\ASM-LAB4-ZAD2\Debug\zad2.obj
^zad2.asm
D:\Projekty\Assemblerowe\ASM-LAB4-ZAD2\ASM-LAB4-ZAD2\Debug\zad2.obj
^zad2.asm
D:\Projekty\Assemblerowe\ASM-LAB4-ZAD2\ASM-LAB4-ZAD2\Debug\zad2.obj
^zad2.asm
D:\Projekty\Assemblerowe\ASM-LAB4-ZAD2\ASM-LAB4-ZAD2\Debug\zad2.obj
^zad2.asm
D:\Projekty\Assemblerowe\ASM-LAB4-ZAD2\ASM-LAB4-ZAD2\Debug\zad2.obj
^zad2.asm
D:\Projekty\Assemblerowe\ASM-LAB4-ZAD2\ASM-LAB4-ZAD2\Debug\zad2.obj
^zad2.asm
D:\Projekty\Assemblerowe\ASM-LAB4-ZAD2\ASM-LAB4-ZAD2\Debug\zad2.obj
^zad2.asm
D:\Projekty\Assemblerowe\ASM-LAB4-ZAD2\ASM-LAB4-ZAD2\Debug\zad2.obj
^zad2.asm
D:\Projekty\Assemblerowe\ASM-LAB4-ZAD2\ASM-LAB4-ZAD2\Debug\zad2.obj
^zad2.asm
D:\Projekty\Assemblerowe\ASM-LAB4-ZAD2\ASM-LAB4-ZAD2\Debug\zad2.obj
^zad2.asm
D:\Projekty\Assemblerowe\ASM-LAB4-ZAD2\ASM-LAB4-ZAD2\Debug\zad2.obj
^zad2.asm
D:\Projekty\Assemblerowe\ASM-LAB4-ZAD2\ASM-LAB4-ZAD2\Debug\zad2.obj
^zad2.asm
D:\Projekty\Assemblerowe\ASM-LAB4-ZAD2\ASM-LAB4-ZAD2\Debug\zad2.obj
^zad2.asm
D:\Projekty\Assemblerowe\ASM-LAB4-ZAD2\ASM-LAB4-ZAD2\Debug\zad2.obj
^zad2.asm
D:\Projekty\Assemblerowe\ASM-LAB4-ZAD2\ASM-LAB4-ZAD2\Debug\zad2.obj
^zad2.asm
D:\Projekty\Assemblerowe\ASM-LAB4-ZAD2\ASM-LAB4-ZAD2\Debug\zad2.obj
